{
 "files": [
  {
   "name": ".",
   "ftype": "dir",
   "chksum_type": null,
   "chksum_sha256": null,
   "format": 1
  },
  {
   "name": "plugins",
   "ftype": "dir",
   "chksum_type": null,
   "chksum_sha256": null,
   "format": 1
  },
  {
   "name": "plugins/inventory",
   "ftype": "dir",
   "chksum_type": null,
   "chksum_sha256": null,
   "format": 1
  },
  {
   "name": "plugins/inventory/yacloud_compute.py",
   "ftype": "file",
   "chksum_type": "sha256",
   "chksum_sha256": "6229fc9d0c9718cc145af0d904afe321a910acfa11323bb1d7d1baf9f2df7d60",
   "format": 1
  }
 ],
 "format": 1
}